<?xml version="1.0" ?>

<sdf version="1.5">
	<world name="default">
		<!-- A global light source -->
		<include>
			<uri>model://sun</uri>
		</include>

		<!-- A ground plane -->
		<include>
			<uri>model://ground_plane</uri>
		</include>

        <!--include>
			<uri>model://postbox</uri>
            <pose>3 3 0 0 0 0</pose>
		</include-->

        <include>
			<uri>model://way</uri>
            <pose>0 0 0 0 0 0</pose>
		</include>

        <include>
			<uri>model://way1</uri>
            <pose>0 2 0 0 0 0</pose>
		</include>

        <include>
			<uri>model://way2</uri>
            <pose>0 4 0 0 0 0</pose>
		</include>

        <include>
			<uri>model://way3</uri>
            <pose>0 6 0 0 0 0</pose>
		</include>

        <include>
			<uri>model://way44</uri>
            <pose>2 0 0 0 0 0</pose>
		</include>

        <include>
			<uri>model://way55</uri>
            <pose>2 2 0 0 0 0</pose>
		</include>

        <include>
			<uri>model://way6</uri>
            <pose>2 4 0 0 0 0</pose>
		</include>

        <include>
			<uri>model://way77</uri>
            <pose>2 6 0 0 0 0</pose>
		</include>

        <include>
			<uri>model://way88</uri>
            <pose>4 0 0 0 0 0</pose>
		</include>

        <include>
			<uri>model://way99</uri>
            <pose>4 2 0 0 0 0</pose>
		</include>

        <include>
			<uri>model://way10</uri>
            <pose>4 4 0 0 0 0</pose>
		</include>

        <include>
			<uri>model://way1111</uri>
            <pose>4 6 0 0 0 0</pose>
		</include>

        <include>
			<uri>model://way1212</uri>
            <pose>6 0 0 0 0 0</pose>
		</include>

        <include>
			<uri>model://way13</uri>
            <pose>6 2 0 0 0 0</pose>
		</include>

        <include>
			<uri>model://way14</uri>
            <pose>6 4 0 0 0 0</pose>
		</include>

        <include>
			<uri>model://way15</uri>
            <pose>6 6 0 0 0 0</pose>
		</include>



        <!--include>
			<uri>model://turtlebot</uri>
            <pose>0 0 0 0 0 0</pose>
		</include-->


	</world>
</sdf>